{"posts":[{"id":"f578d39c-935b-47db-90b4-bc86fbd762b7","title":"국민권익위원회 ‘달리는 국민신문고’, 강진에 온다","content":"국민권익위원회 ‘달리는 국민신문고’, 강진에 온다\n\n12월 10일 개최, 읍․면사무소 상담예약 신청 접수 신청하세요\n\n강진군이 오는 12월 10일 강진군청 2층 대회의실에서 국민권익위위원회가 주관하는 ‘2025년 강진군 달리는 국민신문고’를 운영한다.\n\n‘달리는 국민신문고’는 국민권익위원회 조사관과 협업기관 전문가로 구성된 상담반이 지역주민을 찾아가서 고충 민원을 상담하고 해결방안을 모색하는 제도이다.\n\n국민권익위원회 조사관은 중앙정부·지방자치단체 또는 공공기관의 행정과 관련한 민원상담을 통해 처리하고, 협업기관인 대한법률구조공단·한국소비자원·한국국토정보공사·서민금융진흥원 상담반은 생활법률·소비자피해·지적정리·서민금융 등 주민들의 생활민원 상담을 진행한다.\n\n이번 상담은 모든 행정분야, 민·형사·호적·상속 등 생활법률, 서민금융 지원, 지적관련 분쟁, 소비자 피해 분쟁, 노동관계 문제 등 폭넓은 상담을 제공 할 예정이다.\n\n상담을 원하는 군민은 심도있는 상담준비와 민원해결을 위해 오는 12월 2일까지 가까운 읍·면사무소를 방문해 상담예약신청서를 작성하고 사전 예약할 수 있다.\n\n사전 예약을 하지 않은 경우라도 군민 누구나 운영 당일 12월 10일 15시 30분까지 군청 대회의실 현장에서 신청서를 작성해 상담을 받을 수 있다.\n\n강진군청 기획홍보과장은 “생활 속에서 발생되는 고충과 불편을 겪고 있는 군민들께서이번 기회에 적극 참여해 전문가에게 심도있는 상담을 받으시길 바란다”며 “강진군은 앞으로 군민의 목소리에 귀 기울이며 한걸음 더 다가가 군민의 어려움을 적극 해소해 나가도록 더욱 노력하겠다”는 의지를 전했다.\n\n*사진설명 : ‘달리는 국민신문고’ 안내 포스터","ai_summary":"","original_link":"https://www.gangjin.go.kr/www/government/news/press?idx=646321&mode=view&page=2","source":"강진군","published_at":"2025-12-13T16:51:52.199+00:00","status":"published","thumbnail_url":"/images/gangjin/d2de71673c2305ecc365863ddca04697.jpg","category":"전남","created_at":"2025-12-13T09:30:56.850215+00:00","view_count":0,"author_id":null,"reporter_name":null,"rejected_reason":null,"is_notice":false,"category_id":null,"subtitle":null,"region":"gangjin"},{"id":"df8b0060-59b0-406f-9eac-dbd03e88202a","title":"강진군, 소상공인 ‘마케팅과 고객 소통’으로 경쟁력 높이다","content":"강진군, 소상공인 ‘마케팅과 고객 소통’으로 경쟁력 높이다\n\n온라인 마케팅 전략부터 고객 서비스 마인드까지 실무 중심 커리큘럼 호평\n\n강진군이 지난 12일 강진군도서관 3층에서 개최한 소상공인 역량 강화 교육이 성황리에 마무리됐다. 이번 교육은 관내 소상공인과 예비창업자 50여 명을 대상으로 실전 마케팅 전략과 고객 응대 역량 강화를 중점적으로 다뤘다.\n\n1차 교육은 김민우 더이음경영컨설팅 대표의 ‘소상공인 온라인 마케팅 실전 전략’ 강의로 시작됐다. 참여자들은 마케팅의 기초부터 타깃 고객 설정, 네이버플레이스와 블로그 운영, 인스타그램 및 스레드 활용법, SNS 고도화 전략 등 온라인 채널을 활용한 실전적인 매출 증대 기법을 학습했다.\n\n홍보 콘텐츠 제작과 실습 위주의 강의 구성은 높기만 했던 디지털 장벽을 낮춰주는 계기가 되어 소상공인의 디지털 적응력을 높이는 데 효과적이라는 평가를 받았으며 네이버플레이스를 어렵지 않게 직접 운영할 수 있는 정보와 유의사항을 당부하며 실제 피해 발생 사례를 설명하며 현장감을 더했다.\n\n이어진 2차 교육은 PMA컨설팅 기미현 대표의 ‘고객과의 친밀한 마음의 거리’라는 주제로 진행됐다. 교육에서는 고객 응대의 기본 태도와 친절 마인드, 고객 심리 이해, 긍정적 커뮤니케이션 전략 등이 소개되며 하는 일에 대한 자부심을 형성하는 “동기부여”, “역량”, “근무 환경” 3가지에 대한 경험과 사례를 기반으로 소상공인의 공감을 이끌어냈다.\n\n특히 AI 시대에 더욱 중요해진 ‘휴먼 스킬’의 가치를 강조하며, 무인 서비스로는 대체할 수 없는 사람 간의 신뢰 형성의 중요성을 실감 있게 전달했다.\n\n강진군은 이번 교육 수료자에게 2026년 소상공인 경영환경개선 지원사업 신청 시 가산점을 부여하고, 단체 수료자에게는 상점가 조직화와 지정에 필요한 맞춤형 설명회를 추가 제공할 계획이다.\n\n강진원 군수는 “이번 교육은 실무에 바로 적용 가능한 내용으로 구성해 현장 소상공인의 큰 호응을 얻었다”며 “앞으로도 다양한 맞춤형 교육과 지원으로 소상공인이 자립할 수 있는 환경을 만들어가겠다”고 말했다.\n\n*사진 설명: 소상공인 역량 강화 교육 사진","ai_summary":"","original_link":"https://www.gangjin.go.kr/www/government/news/press?idx=646319&mode=view&page=3","source":"강진군","published_at":"2025-12-13T16:51:52.188+00:00","status":"published","thumbnail_url":"/images/gangjin/10ece68de960361a5d2471b4589aff22.jpg","category":"전남","created_at":"2025-12-13T09:31:20.6489+00:00","view_count":0,"author_id":null,"reporter_name":null,"rejected_reason":null,"is_notice":false,"category_id":null,"subtitle":null,"region":"gangjin"}],"count":268,"page":1,"totalPages":134}